[
  {
    "name": "Букет из эустомы",
    "price": "200,00 грн",
    "src": "./images/buket1.jpg ",
    "article": "1001",
    "color": "разноцветный"
  },
  {
    "name": "Букет фиалковый",
    "price": "250,00 грн",
    "src": " ./images/buket2.png",
    "article": "1002",
    "color": "фиолетовый"
  },
  {
    "name": "Букет свадебный",
    "price": "500,00 грн",
    "src": "./images/buket3.jpg",
    "article": "1003",
    "color": "белый"
  },
  {
    "name": "Букет бельмонте",
    "price": "600,00 грн",
    "src": "./images/buket4.jpg",
    "article": "1004",
    "color": "розовый"
  },
  {
    "name": "Букет элегант",
    "price": "650,00 грн",
    "src": "./images/buket5.jpg",
    "article": "1005",
    "color": "белос-сиреневый"
  },
  {
    "name": "Букет манглуар",
    "price": "450,00 грн",
    "src": "./images/buket6.jpg",
    "article": "1006",
    "color": "розовый"
  },
  {
    "name": "Букет из белый роз",
    "price": "750,00 грн",
    "src": "./images/buket7.jpg ",
    "article": "1007",
    "color": "белый"
  },
  {
    "name": "Букет из алых роз",
    "price": "800,00 грн",
    "src": "./images/buket8.jpg",
    "article": "1008",
    "color": "красный"
  },
  {
    "name": "Букет из тюлпанов",
    "price": "457,00 грн",
    "src": "./images/buket9.jpg",
    "article": "1009",
    "color": "лиловый"
  },
  {
    "name": "Букет из маттиолы",
    "price": "560,00 грн",
    "src": "./images/buket10.jpg",
    "article": "1010",
    "color": "сиреневый"
  }
]
